{
    "product_id": "22343rfef4654563rewf",
    "order_id": "dfkjoeru98234uiswer234",
    "product_name": "Samsung S23",
    "description": "Mobile Phone",
    "price": 35000,
    "stocks": 488,
    "is_active": true,
    "sku": "ASD0987"
}