{
    "user_id": "34346efsdgfh67724rewfsdf",
    "first_name": "George",
    "last_name": "Washington",
    "email": "george@mail.com",
    "password": "george1234",
    "is_admin": false,
    "mobile_number": "0987654321"
}